%YAML 1.1
%TAG !u! tag:unity3d.com,2011:
--- !u!114 &11400000
MonoBehaviour:
  m_ObjectHideFlags: 0
  m_CorrespondingSourceObject: {fileID: 0}
  m_PrefabInstance: {fileID: 0}
  m_PrefabAsset: {fileID: 0}
  m_GameObject: {fileID: 0}
  m_Enabled: 1
  m_EditorHideFlags: 0
  m_Script: {fileID: 11500000, guid: d0c36c2724da4b54a63117d7339106af, type: 3}
  m_Name: Cars
  m_EditorClassIdentifier: 
  Assets:
  - {fileID: 164098, guid: 416c46ca128db5f4bb76f235b4f991d5, type: 3}
  - {fileID: 157676, guid: fcd06c9319e99cc4bbee7ce7730d9422, type: 3}
  - {fileID: 141870, guid: edf6cb56e12fba648b2cf1e7dfa5bf88, type: 3}
  - {fileID: 189930, guid: f539f0390d17a9f4a922b722e47998fe, type: 3}
  - {fileID: 198730, guid: 85ac88d7c46e0ea4583870a98cc13580, type: 3}
  - {fileID: 127632, guid: 0383b854a926f1643b20f9c7cdb2e4de, type: 3}
  - {fileID: 175378, guid: a916a44328d322240bd1aaaca22fc8a7, type: 3}
  - {fileID: 130278, guid: 94469aeaca2d49442af381840b70bb6c, type: 3}
