%YAML 1.1
%TAG !u! tag:unity3d.com,2011:
--- !u!114 &11400000
MonoBehaviour:
  m_ObjectHideFlags: 0
  m_CorrespondingSourceObject: {fileID: 0}
  m_PrefabInstance: {fileID: 0}
  m_PrefabAsset: {fileID: 0}
  m_GameObject: {fileID: 0}
  m_Enabled: 1
  m_EditorHideFlags: 0
  m_Script: {fileID: 11500000, guid: 4d84a2e037f547178af2d636112829d7, type: 3}
  m_Name: MapGeneratorSettings
  m_EditorClassIdentifier: 
  GenerateOnAwake: 1
  SizeX: 6
  SizeZ: 6
  SquareSize: 30
  Spacing: 40
  MaxHorizontalShift: 0
  GymsCount: 4
