%YAML 1.1
%TAG !u! tag:unity3d.com,2011:
--- !u!114 &11400000
MonoBehaviour:
  m_ObjectHideFlags: 0
  m_CorrespondingSourceObject: {fileID: 0}
  m_PrefabInstance: {fileID: 0}
  m_PrefabAsset: {fileID: 0}
  m_GameObject: {fileID: 0}
  m_Enabled: 1
  m_EditorHideFlags: 0
  m_Script: {fileID: 11500000, guid: 7fd84365f05e426a95e3aed4a3111712, type: 3}
  m_Name: ParkPropsSpawner
  m_EditorClassIdentifier: 
  SpotTag: ParkPropSpot
  SpawningChance: 0.8
  PopulateOnStart: 1
  AlignRotationWithParent: 1
