%YAML 1.1
%TAG !u! tag:unity3d.com,2011:
--- !u!114 &11400000
MonoBehaviour:
  m_ObjectHideFlags: 0
  m_CorrespondingSourceObject: {fileID: 0}
  m_PrefabInstance: {fileID: 0}
  m_PrefabAsset: {fileID: 0}
  m_GameObject: {fileID: 0}
  m_Enabled: 1
  m_EditorHideFlags: 0
  m_Script: {fileID: 11500000, guid: 6e421cb8e28e4edfb4fc52050aef2fcc, type: 3}
  m_Name: Squares
  m_EditorClassIdentifier: 
  Assets:
  - Asset: {fileID: 4527495404575205678, guid: 4e988b2b567e93c49ad8bb658dea70a1, type: 3}
    Weight: 6
  - Asset: {fileID: 4527495404575205678, guid: 09599adc8b8f88247ac2e35ef57e6d19, type: 3}
    Weight: 1
